Replicate,Calculated volume (mL),Target volume (mL),Calculated volume - target volume (mL),Mass (g),Pull flow rate (mL/min),Push flow rate (mL/min),From port,To port,Density (g/mL),Slope (flow rate calculated vs target volume),Y-int (flow rate calculated vs target volume),R2 (flow rate calculated vs target volume),R2 (Calculated volume vs target volume),Slope (Calculated volume vs target volume),Y-int (Calculated volume vs target volume)
1.0,0.08,0.1,-0.020000000000000004,0.06312999999999969,5.0,2.0,2.0,1.0,0.786,,,,,,
1.0,0.179,0.2,-0.02100000000000002,0.14033000000000007,5.0,2.0,2.0,1.0,0.786,,,,,,
1.0,0.28,0.3,-0.019999999999999962,0.21998000000000006,5.0,2.0,2.0,1.0,0.786,,,,,,
1.0,0.381,0.4,-0.019000000000000017,0.29945999999999984,5.0,2.0,2.0,1.0,0.786,,,,,,
1.0,0.474,0.5,-0.026000000000000023,0.3725200000000002,5.0,2.0,2.0,1.0,0.786,,,,,,
,,,,,,,,,,,,,0.9997878217866223,0.9899999999999999,-0.018199999999999883
