Replicate,Calculated volume (mL),Target volume (mL),Calculated volume - target volume (mL),Mass (g),Pull flow rate (mL/min),Push flow rate (mL/min),From port,To port,Density (g/mL),Slope (flow rate calculated vs target volume),Y-int (flow rate calculated vs target volume),R2 (flow rate calculated vs target volume),R2 (Calculated volume vs target volume),Slope (Calculated volume vs target volume),Y-int (Calculated volume vs target volume)
1.0,0.071,0.1,-0.029000000000000012,0.07799999999999985,2.0,2.0,2.0,1.0,1.1,,,,,,
1.0,0.165,0.2,-0.035,0.18100000000000005,2.0,2.0,2.0,1.0,1.1,,,,,,
1.0,0.261,0.3,-0.03899999999999998,0.2874300000000001,2.0,2.0,2.0,1.0,1.1,,,,,,
1.0,0.357,0.4,-0.04300000000000004,0.3929400000000003,2.0,2.0,2.0,1.0,1.1,,,,,,
1.0,0.453,0.5,-0.046999999999999986,0.49853999999999976,2.0,2.0,2.0,1.0,1.1,,,,,,
,,,,,,,,,,,,,0.9999824936101677,0.9559999999999998,-0.025399999999999978
