Replicate,Calculated volume (mL),Target volume (mL),Calculated volume - target volume (mL),Mass (g),Pull flow rate (mL/min),Push flow rate (mL/min),From port,To port,Density (g/mL),Slope (flow rate calculated vs target volume),Y-int (flow rate calculated vs target volume),R2 (flow rate calculated vs target volume),R2 (Calculated volume vs target volume),Slope (Calculated volume vs target volume),Y-int (Calculated volume vs target volume)
1.0,0.045,0.1,-0.05500000000000001,0.048960000000000115,2.0,2.0,2.0,1.0,1.1,,,,,,
1.0,0.162,0.2,-0.038000000000000006,0.17825999999999986,2.0,2.0,2.0,1.0,1.1,,,,,,
1.0,0.264,0.3,-0.035999999999999976,0.29034000000000004,2.0,2.0,2.0,1.0,1.1,,,,,,
1.0,0.362,0.4,-0.038000000000000034,0.3980800000000002,2.0,2.0,2.0,1.0,1.1,,,,,,
1.0,0.457,0.5,-0.04299999999999998,0.5027200000000001,2.0,2.0,2.0,1.0,1.1,,,,,,
,,,,,,,,,,,,,0.9982825263238065,1.0239999999999998,-0.04919999999999991
