Replicate,Calculated volume (mL),Target volume (mL),Calculated volume - target volume (mL),Mass (g),Pull flow rate (mL/min),Push flow rate (mL/min),From port,To port,Density (g/mL),Slope (flow rate calculated vs target volume),Y-int (flow rate calculated vs target volume),R2 (flow rate calculated vs target volume),R2 (Calculated volume vs target volume),Slope (Calculated volume vs target volume),Y-int (Calculated volume vs target volume)
1.0,0.079,0.1,-0.021000000000000005,0.062180000000000124,2.0,2.0,2.0,1.0,0.784,,,,,,
1.0,0.171,0.2,-0.028999999999999998,0.13393999999999995,2.0,2.0,2.0,1.0,0.784,,,,,,
1.0,0.269,0.3,-0.030999999999999972,0.21082,2.0,2.0,2.0,1.0,0.784,,,,,,
1.0,0.364,0.4,-0.03600000000000003,0.2849999999999997,2.0,2.0,2.0,1.0,0.784,,,,,,
1.0,0.461,0.5,-0.03899999999999998,0.36143000000000036,2.0,2.0,2.0,1.0,0.784,,,,,,
,,,,,,,,,,,,,0.9999137486789357,0.9570000000000001,-0.018299999999999983
