Replicate,Calculated volume (mL),Target volume (mL),Calculated volume - target volume (mL),Mass (g),Pull flow rate (mL/min),Push flow rate (mL/min),From port,To port,Density (g/mL),Slope (flow rate calculated vs target volume),Y-int (flow rate calculated vs target volume),R2 (flow rate calculated vs target volume),R2 (Calculated volume vs target volume),Slope (Calculated volume vs target volume),Y-int (Calculated volume vs target volume)
1.0,0.079,0.1,-0.021000000000000005,0.058259999999999756,2.0,2.0,2.0,1.0,0.74,,,,,,
1.0,0.166,0.2,-0.034,0.12256,2.0,2.0,2.0,1.0,0.74,,,,,,
1.0,0.261,0.3,-0.03899999999999998,0.1932400000000003,2.0,2.0,2.0,1.0,0.74,,,,,,
1.0,0.357,0.4,-0.04300000000000004,0.2640199999999999,2.0,2.0,2.0,1.0,0.74,,,,,,
1.0,0.449,0.5,-0.05099999999999999,0.33194999999999997,2.0,2.0,2.0,1.0,0.74,,,,,,
,,,,,,,,,,,,,0.9997335615553544,0.9309999999999997,-0.01689999999999986
