Replicate,Calculated volume (mL),Target volume (mL),Calculated volume - target volume (mL),Mass (g),Pull flow rate (mL/min),Push flow rate (mL/min),From port,To port,Density (g/mL),Slope (flow rate calculated vs target volume),Y-int (flow rate calculated vs target volume),R2 (flow rate calculated vs target volume),R2 (Calculated volume vs target volume),Slope (Calculated volume vs target volume),Y-int (Calculated volume vs target volume)
1.0,0.09,0.1,-0.010000000000000009,0.07109999999999994,2.0,2.0,2.0,1.0,0.7859999999999999,,,,,,
1.0,0.186,0.2,-0.014000000000000012,0.1463300000000003,2.0,2.0,2.0,1.0,0.7859999999999999,,,,,,
1.0,0.282,0.3,-0.018000000000000016,0.2217699999999998,2.0,2.0,2.0,1.0,0.7859999999999999,,,,,,
1.0,0.379,0.4,-0.02100000000000002,0.29814000000000007,2.0,2.0,2.0,1.0,0.7859999999999999,,,,,,
1.0,0.479,0.5,-0.02100000000000002,0.3763700000000001,2.0,2.0,2.0,1.0,0.7859999999999999,,,,,,
,,,,,,,,,,,,,0.9999289432266987,0.971,-0.008099999999999996
