2021-10-15 13:15:24.553926,SODIUM CARBONATE,"self.ur.move_joints(self.quantos_sequence.jointsapproach_wall, velocity=self.joint_velocity)"
2021-10-15 13:15:24.727818,SODIUM CARBONATE,self.ur.open_gripper(0)
2021-10-15 13:15:24.953681,SODIUM CARBONATE,"self.ur.move_joints(self.quantos_sequence.jointsturnup, velocity=self.joint_velocity)"
2021-10-15 13:15:28.347596,SODIUM CARBONATE,"self.ur.move_joints(self.quantos_sequence.jointsWaypoint_4, velocity=self.joint_velocity)"
2021-10-15 13:15:31.267803,SODIUM CARBONATE,"self.ur.move_joints(self.quantos_sequence.jointsWaypoint_5, velocity=self.joint_velocity)"
2021-10-15 13:15:35.987905,SODIUM CARBONATE,"self.ur.move_joints(self.quantos_sequence.jointsWaypoint_6, velocity=self.joint_velocity)"
2021-10-15 13:15:40.899887,SODIUM CARBONATE,"self.ur.move_joints(self.quantos_sequence.jointsswing, velocity=self.joint_velocity)"
2021-10-15 13:15:43.422339,SODIUM CARBONATE,"self.ur.move_joints(self.quantos_sequence.jointsWaypoint_3, velocity=self.joint_velocity)"
2021-10-15 13:15:45.331175,SODIUM CARBONATE,"self.ur.move_joints(self.quantos_sequence.jointsquaninsert_apr, velocity=self.joint_velocity)"
2021-10-15 13:15:48.537199,SODIUM CARBONATE,"self.ur.move_to_location(self.quantos_sequence.locationsquan_engage, velocity=self.linear_velocity)"
2021-10-15 13:15:50.145212,SODIUM CARBONATE,"self.ur.open_gripper(0.5,velocity=0)"
2021-10-15 13:15:50.587940,SODIUM CARBONATE,"self.ur.move_to_location(self.quantos_sequence.locationsquan_engage+Location(z=4), velocity=20)"
2021-10-15 13:15:51.952103,SODIUM CARBONATE,"self.ur.move_joints(self.quantos_sequence.jointsquaninsert_apr, velocity=10)"
2021-10-15 13:15:54.072801,SODIUM CARBONATE,"self.ur.move_joints(self.quantos_sequence.jointsWaypoint_9, velocity=self.joint_velocity)"
2021-10-15 13:15:56.473326,SODIUM CARBONATE,"self.ur.move_joints(self.quantos_sequence.jointsWaypoint_3, velocity=self.joint_velocity)"
2021-10-15 13:15:58.487092,SODIUM CARBONATE,"self.ur.move_joints(self.quantos_sequence.jointsswing, velocity=self.joint_velocity)"
2021-10-15 13:16:00.396918,SODIUM CARBONATE,"self.ur.move_joints(self.quantos_sequence.jointsWaypoint_6, velocity=self.joint_velocity)"
2021-10-15 13:16:02.894382,SODIUM CARBONATE,"self.ur.move_joints(self.quantos_sequence.jointsWaypoint_5, velocity=self.joint_velocity)"
2021-10-15 13:16:07.829353,SODIUM CARBONATE,"self.ur.move_joints(self.quantos_sequence.jointsWaypoint_4, velocity=self.joint_velocity)"
2021-10-15 13:16:12.645397,SODIUM CARBONATE,"self.ur.move_joints(self.quantos_sequence.jointsturnup, velocity=self.joint_velocity)"
2021-10-15 13:16:15.550612,SODIUM CARBONATE,"self.ur.move_joints(self.quantos_sequence.jointsapproach_wall, velocity=self.joint_velocity)"
2021-10-15 13:16:18.980507,B3,"self.ur.move_to_location(self.wall_grid.locations[wall_index] + self.wall_approach_far_offset, velocity=self.linear_velocity)"
2021-10-15 13:16:23.386800,B3,"self.ur.move_to_location(self.wall_grid.locations[wall_index] + self.wall_approach_close_offset,velocity=self.linear_velocity)"
2021-10-15 13:16:25.805316,B3,"self.ur.move_to_location(self.wall_grid.locations[wall_index] + Location(z=4),velocity=self.linear_velocity)"
2021-10-15 13:16:27.403335,B3,"self.ur.move_to_location(self.wall_grid.locations[wall_index],velocity=self.linear_velocity)"
2021-10-15 13:16:28.308779,B3,self.ur.open_gripper(0)
2021-10-15 13:16:28.751506,B3,"self.ur.move_to_location(self.wall_grid.locations[wall_index] + Location(z=4),velocity=self.linear_velocity)"
2021-10-15 13:16:29.612978,B3,"self.ur.move_to_location(self.wall_grid.locations[wall_index] + self.wall_approach_close_offset,velocity=self.linear_velocity)"
2021-10-15 13:16:31.219992,B3,"self.ur.move_to_location(self.wall_grid.locations[wall_index] + self.wall_approach_far_offset,velocity=self.linear_velocity)"
2021-10-15 13:16:33.650009,A2,self.ur.move_to_location(self.wall_grid.locations[wall_index] + self.wall_approach_far_offset)
2021-10-15 13:21:53.581575,SODIUM CARBONATE,"self.ur.move_joints(self.quantos_sequence.jointsapproach_wall, velocity=self.joint_velocity)"
2021-10-15 13:21:55.551366,SODIUM CARBONATE,self.ur.open_gripper(0)
2021-10-15 13:21:55.786222,SODIUM CARBONATE,"self.ur.move_joints(self.quantos_sequence.jointsturnup, velocity=self.joint_velocity)"
2021-10-15 13:21:59.086195,SODIUM CARBONATE,"self.ur.move_joints(self.quantos_sequence.jointsWaypoint_4, velocity=self.joint_velocity)"
2021-10-15 13:22:01.990412,SODIUM CARBONATE,"self.ur.move_joints(self.quantos_sequence.jointsWaypoint_5, velocity=self.joint_velocity)"
2021-10-15 13:22:06.721507,SODIUM CARBONATE,"self.ur.move_joints(self.quantos_sequence.jointsWaypoint_6, velocity=self.joint_velocity)"
2021-10-15 13:22:11.649487,SODIUM CARBONATE,"self.ur.move_joints(self.quantos_sequence.jointsswing, velocity=self.joint_velocity)"
2021-10-15 13:22:14.164942,SODIUM CARBONATE,"self.ur.move_joints(self.quantos_sequence.jointsWaypoint_3, velocity=self.joint_velocity)"
2021-10-15 13:22:15.970834,SODIUM CARBONATE,"self.ur.move_joints(self.quantos_sequence.jointsquaninsert_apr, velocity=self.joint_velocity)"
2021-10-15 13:22:19.180863,SODIUM CARBONATE,"self.ur.move_to_location(self.quantos_sequence.locationsquan_engage, velocity=self.linear_velocity)"
2021-10-15 13:22:20.793872,SODIUM CARBONATE,"self.ur.open_gripper(0.5,velocity=0)"
2021-10-15 13:22:21.235600,SODIUM CARBONATE,"self.ur.move_to_location(self.quantos_sequence.locationsquan_engage+Location(z=4), velocity=20)"
2021-10-15 13:22:22.591768,SODIUM CARBONATE,"self.ur.move_joints(self.quantos_sequence.jointsquaninsert_apr, velocity=10)"
2021-10-15 13:22:24.703472,SODIUM CARBONATE,"self.ur.move_joints(self.quantos_sequence.jointsWaypoint_9, velocity=self.joint_velocity)"
2021-10-15 13:22:27.115994,SODIUM CARBONATE,"self.ur.move_joints(self.quantos_sequence.jointsWaypoint_3, velocity=self.joint_velocity)"
2021-10-15 13:22:29.129753,SODIUM CARBONATE,"self.ur.move_joints(self.quantos_sequence.jointsswing, velocity=self.joint_velocity)"
2021-10-15 13:22:30.947638,SODIUM CARBONATE,"self.ur.move_joints(self.quantos_sequence.jointsWaypoint_6, velocity=self.joint_velocity)"
2021-10-15 13:22:33.448102,SODIUM CARBONATE,"self.ur.move_joints(self.quantos_sequence.jointsWaypoint_5, velocity=self.joint_velocity)"
2021-10-15 13:22:38.286131,SODIUM CARBONATE,"self.ur.move_joints(self.quantos_sequence.jointsWaypoint_4, velocity=self.joint_velocity)"
2021-10-15 13:22:43.005234,SODIUM CARBONATE,"self.ur.move_joints(self.quantos_sequence.jointsturnup, velocity=self.joint_velocity)"
2021-10-15 13:22:45.928439,SODIUM CARBONATE,"self.ur.move_joints(self.quantos_sequence.jointsapproach_wall, velocity=self.joint_velocity)"
2021-10-15 13:22:49.340344,B3,"self.ur.move_to_location(self.wall_grid.locations[wall_index] + self.wall_approach_far_offset, velocity=self.linear_velocity)"
2021-10-15 13:22:53.760630,B3,"self.ur.move_to_location(self.wall_grid.locations[wall_index] + self.wall_approach_close_offset,velocity=self.linear_velocity)"
2021-10-15 13:22:56.183142,B3,"self.ur.move_to_location(self.wall_grid.locations[wall_index] + Location(z=4),velocity=self.linear_velocity)"
2021-10-15 13:22:57.798151,B3,"self.ur.move_to_location(self.wall_grid.locations[wall_index],velocity=self.linear_velocity)"
2021-10-15 13:22:58.694601,B3,self.ur.open_gripper(0)
2021-10-15 13:22:59.135330,B3,"self.ur.move_to_location(self.wall_grid.locations[wall_index] + Location(z=4),velocity=self.linear_velocity)"
2021-10-15 13:23:00.001798,B3,"self.ur.move_to_location(self.wall_grid.locations[wall_index] + self.wall_approach_close_offset,velocity=self.linear_velocity)"
2021-10-15 13:23:01.618804,B3,"self.ur.move_to_location(self.wall_grid.locations[wall_index] + self.wall_approach_far_offset,velocity=self.linear_velocity)"
2021-10-15 13:23:04.043317,A2,self.ur.move_to_location(self.wall_grid.locations[wall_index] + self.wall_approach_far_offset)
2021-10-15 13:23:05.929159,A2,self.ur.move_to_location(self.wall_grid.locations[wall_index] + self.wall_approach_close_offset)
2021-10-15 13:23:07.450224,A2,"self.ur.move_to_location(self.wall_grid.locations[wall_index] + Location(z=4), velocity=self.linear_velocity)"
2021-10-15 13:23:09.045247,A2,"self.ur.move_to_location(self.wall_grid.locations[wall_index], velocity=self.linear_velocity)"
2021-10-15 13:23:09.962682,A2,self.ur.open_gripper(0.5)
2021-10-15 13:23:10.399414,A2,"self.ur.move_to_location(self.wall_grid.locations[wall_index] + Location(z=4), velocity=self.linear_velocity)"
2021-10-15 13:23:11.267880,A2,"self.ur.move_to_location(self.wall_grid.locations[wall_index] + self.wall_approach_close_offset, velocity=20, acceleration=100)"
2021-10-15 13:23:13.677404,A2,"self.ur.move_to_location(self.wall_grid.locations[wall_index] + self.wall_approach_far_offset, velocity=self.linear_velocity)"
2021-10-15 13:23:16.670562,B3,"self.ur.move_joints(self.quantos_sequence.jointsapproach_wall, velocity=self.joint_velocity)"
2021-10-15 13:23:18.498441,B3,"self.ur.move_joints(self.quantos_sequence.jointsturnup, velocity=self.joint_velocity)"
2021-10-15 13:23:21.924338,B3,"        self.ur.move_joints(self.quantos_sequence.jointsWaypoint_4, velocity=self.joint_velocity)"
2021-10-15 13:23:24.830551,B3,"        self.ur.move_joints(self.quantos_sequence.jointsWaypoint_5, velocity=self.joint_velocity)"
2021-10-15 13:23:29.558650,B3,"        self.ur.move_joints(self.quantos_sequence.jointsWaypoint_6, velocity=self.joint_velocity)"
2021-10-15 13:23:34.392681,B3,"        self.ur.move_joints(self.quantos_sequence.jointsswing, velocity=self.joint_velocity)"
2021-10-15 13:23:36.911134,B3,"        self.ur.move_joints(self.quantos_sequence.jointsWaypoint_3, velocity=self.joint_velocity)"
2021-10-15 13:23:38.714027,B3,"        self.ur.move_joints(self.quantos_sequence.jointsquaninsert_apr, velocity=20)"
2021-10-15 13:23:45.953583,B3,"        self.ur.move_joints(self.quantos_sequence.jointsquaninsert_sh, velocity=20)"
2021-10-15 13:23:47.647543,B3,"self.ur.move_to_location(self.quantos_sequence.locationsquan_engage, velocity=20)"
2021-10-15 13:23:51.865952,B3,self.ur.open_gripper(0)
2021-10-15 13:23:52.306681,B3,"self.ur.move_joints(self.quantos_sequence.jointsquaninsert_sh, velocity=self.joint_velocity)"
2021-10-15 13:23:52.972273,B3,"self.ur.move_joints(self.quantos_sequence.jointsquaninsert_apr, velocity=self.joint_velocity)   "
2021-10-15 13:23:54.078594,B3,"self.ur.move_joints(self.quantos_sequence.jointsWaypoint_9, velocity=self.joint_velocity)"
2021-10-15 13:23:56.495110,B3,"self.ur.move_joints(self.quantos_sequence.jointsWaypoint_3, velocity=self.joint_velocity)"
2021-10-15 13:23:58.507873,B3,"self.ur.move_joints(self.quantos_sequence.jointsswing, velocity=self.joint_velocity)"
2021-10-15 13:24:00.417701,B3,"self.ur.move_joints(self.quantos_sequence.jointsWaypoint_6, velocity=self.joint_velocity)"
2021-10-15 13:24:02.930159,B3,"        self.ur.move_joints(self.quantos_sequence.jointsWaypoint_5, velocity=self.joint_velocity)"
2021-10-15 13:24:07.851137,B3,"self.ur.move_joints(self.quantos_sequence.jointsWaypoint_4, velocity=self.joint_velocity)"
2021-10-15 13:24:12.565242,B3,"self.ur.move_joints(self.quantos_sequence.jointsturnup, velocity=self.joint_velocity)"
2021-10-15 13:24:15.485450,B3,"self.ur.move_joints(self.quantos_sequence.jointsapproach_wall, velocity=self.joint_velocity)"
2022-01-24 13:51:12.082711,gentisic,"self.ur.move_joints(self.quantos_sequence.jointsapproach_wall, velocity=self.joint_velocity)"
2022-01-24 13:51:12.196293,gentisic,self.ur.open_gripper(0)
2022-01-24 13:51:12.399357,gentisic,"self.ur.move_joints(self.quantos_sequence.jointsturnup, velocity=self.joint_velocity)"
2022-01-24 13:51:14.415593,gentisic,"self.ur.move_joints(self.quantos_sequence.jointsWaypoint_4, velocity=self.joint_velocity)"
2022-01-24 13:51:16.226842,gentisic,"self.ur.move_joints(self.quantos_sequence.jointsWaypoint_5, velocity=self.joint_velocity)"
2022-01-24 13:51:19.043355,gentisic,"self.ur.move_joints(self.quantos_sequence.jointsWaypoint_6, velocity=self.joint_velocity)"
2022-01-24 13:51:21.957703,gentisic,"self.ur.move_joints(self.quantos_sequence.jointsswing, velocity=self.joint_velocity)"
2022-01-24 13:51:23.567449,gentisic,"self.ur.move_joints(self.quantos_sequence.jointsWaypoint_3, velocity=self.joint_velocity)"
2022-01-24 13:51:24.768558,gentisic,"self.ur.move_joints(self.quantos_sequence.jointsquaninsert_apr, velocity=self.joint_velocity)"
2022-01-24 13:51:26.783371,gentisic,"self.ur.move_to_location(self.quantos_sequence.locationsquan_engage, velocity=self.linear_velocity)"
2022-01-24 13:51:27.888942,gentisic,"self.ur.open_gripper(0.5,velocity=0)"
2022-01-24 13:51:28.092716,gentisic,"self.ur.move_to_location(self.quantos_sequence.locationsquan_engage+Location(z=4), velocity=20)"
2022-01-24 13:51:29.093607,gentisic,"self.ur.move_joints(self.quantos_sequence.jointsquaninsert_apr, velocity=10)"
2022-01-24 13:51:30.506227,gentisic,"self.ur.move_joints(self.quantos_sequence.jointsWaypoint_9, velocity=self.joint_velocity)"
2022-01-24 13:51:32.013833,gentisic,"self.ur.move_joints(self.quantos_sequence.jointsWaypoint_3, velocity=self.joint_velocity)"
2022-01-24 13:51:33.328095,gentisic,"self.ur.move_joints(self.quantos_sequence.jointsswing, velocity=self.joint_velocity)"
2022-01-24 13:51:34.528172,gentisic,"self.ur.move_joints(self.quantos_sequence.jointsWaypoint_6, velocity=self.joint_velocity)"
2022-01-24 13:51:36.142296,gentisic,"self.ur.move_joints(self.quantos_sequence.jointsWaypoint_5, velocity=self.joint_velocity)"
2022-01-24 13:51:39.052426,gentisic,"self.ur.move_joints(self.quantos_sequence.jointsWaypoint_4, velocity=self.joint_velocity)"
2022-01-24 13:51:41.876466,gentisic,"self.ur.move_joints(self.quantos_sequence.jointsturnup, velocity=self.joint_velocity)"
2022-01-24 13:51:43.681898,gentisic,"self.ur.move_joints(self.quantos_sequence.jointsapproach_wall, velocity=self.joint_velocity)"
2022-01-24 13:51:53.940778,A1,"self.ur.move_to_location(self.wall_grid.locations[wall_index] + self.wall_approach_far_offset, velocity=self.linear_velocity)"
2022-01-24 13:51:56.347213,A1,"self.ur.move_to_location(self.wall_grid.locations[wall_index] + self.wall_approach_close_offset,velocity=self.linear_velocity)"
2022-01-24 13:51:57.853155,A1,"self.ur.move_to_location(self.wall_grid.locations[wall_index] + Location(z=4),velocity=self.linear_velocity)"
2022-01-24 13:51:58.863048,A1,"self.ur.move_to_location(self.wall_grid.locations[wall_index],velocity=self.linear_velocity)"
2022-01-24 13:51:59.562210,A1,self.ur.open_gripper(0)
2022-01-24 13:51:59.767076,A1,"self.ur.move_to_location(self.wall_grid.locations[wall_index] + Location(z=4),velocity=self.linear_velocity)"
2022-01-24 13:52:00.470301,A1,"self.ur.move_to_location(self.wall_grid.locations[wall_index] + self.wall_approach_close_offset,velocity=self.linear_velocity)"
2022-01-24 13:52:01.474221,A1,"self.ur.move_to_location(self.wall_grid.locations[wall_index] + self.wall_approach_far_offset,velocity=self.linear_velocity)"
2022-01-24 13:52:03.021479,B2,self.ur.move_to_location(self.wall_grid.locations[wall_index] + self.wall_approach_far_offset)
2022-01-24 13:52:04.193057,B2,self.ur.move_to_location(self.wall_grid.locations[wall_index] + self.wall_approach_close_offset)
2022-01-24 13:52:05.199645,B2,"self.ur.move_to_location(self.wall_grid.locations[wall_index] + Location(z=4), velocity=self.linear_velocity)"
2022-01-24 13:52:06.207680,B2,"self.ur.move_to_location(self.wall_grid.locations[wall_index], velocity=self.linear_velocity)"
2022-01-24 13:52:06.910326,B2,self.ur.open_gripper(0.5)
2022-01-24 13:52:07.114086,B2,"self.ur.move_to_location(self.wall_grid.locations[wall_index] + Location(z=4), velocity=self.linear_velocity)"
2022-01-24 13:52:07.807840,B2,"self.ur.move_to_location(self.wall_grid.locations[wall_index] + self.wall_approach_close_offset, velocity=20, acceleration=100)"
2022-01-24 13:52:09.316037,B2,"self.ur.move_to_location(self.wall_grid.locations[wall_index] + self.wall_approach_far_offset, velocity=self.linear_velocity)"
2022-01-24 13:52:11.376795,A1,"self.ur.move_joints(self.quantos_sequence.jointsapproach_wall, velocity=self.joint_velocity)"
2022-01-24 13:52:12.428224,A1,"self.ur.move_joints(self.quantos_sequence.jointsturnup, velocity=self.joint_velocity)"
2022-01-24 13:52:14.439595,A1,"        self.ur.move_joints(self.quantos_sequence.jointsWaypoint_4, velocity=self.joint_velocity)"
2022-01-24 13:52:16.254580,A1,"        self.ur.move_joints(self.quantos_sequence.jointsWaypoint_5, velocity=self.joint_velocity)"
2022-01-24 13:52:19.068248,A1,"        self.ur.move_joints(self.quantos_sequence.jointsWaypoint_6, velocity=self.joint_velocity)"
2022-01-24 13:52:21.976595,A1,"        self.ur.move_joints(self.quantos_sequence.jointsswing, velocity=self.joint_velocity)"
2022-01-24 13:52:23.585134,A1,"        self.ur.move_joints(self.quantos_sequence.jointsWaypoint_3, velocity=self.joint_velocity)"
2022-01-24 13:52:24.797330,A1,"        self.ur.move_joints(self.quantos_sequence.jointsquaninsert_apr, velocity=20)"
2022-01-24 13:52:29.020392,A1,"        self.ur.move_joints(self.quantos_sequence.jointsquaninsert_sh, velocity=20)"
2022-01-24 13:52:30.129232,A1,"self.ur.move_to_location(self.quantos_sequence.locationsquan_engage, velocity=20)"
2022-01-24 13:52:33.933819,A1,self.ur.open_gripper(0)
2022-01-24 13:52:34.135563,A1,"self.ur.move_joints(self.quantos_sequence.jointsquaninsert_sh, velocity=self.joint_velocity)"
2022-01-24 13:52:34.649761,A1,"self.ur.move_joints(self.quantos_sequence.jointsquaninsert_apr, velocity=self.joint_velocity)   "
2022-01-24 13:52:35.456877,A1,"self.ur.move_joints(self.quantos_sequence.jointsWaypoint_9, velocity=self.joint_velocity)"
2022-01-24 13:52:36.958607,A1,"self.ur.move_joints(self.quantos_sequence.jointsWaypoint_3, velocity=self.joint_velocity)"
2022-01-24 13:52:38.271702,A1,"self.ur.move_joints(self.quantos_sequence.jointsswing, velocity=self.joint_velocity)"
2022-01-24 13:52:39.476822,A1,"self.ur.move_joints(self.quantos_sequence.jointsWaypoint_6, velocity=self.joint_velocity)"
2022-01-24 13:52:41.084181,A1,"        self.ur.move_joints(self.quantos_sequence.jointsWaypoint_5, velocity=self.joint_velocity)"
2022-01-24 13:52:43.998793,A1,"self.ur.move_joints(self.quantos_sequence.jointsWaypoint_4, velocity=self.joint_velocity)"
2022-01-24 13:52:46.814916,A1,"self.ur.move_joints(self.quantos_sequence.jointsturnup, velocity=self.joint_velocity)"
2022-01-24 13:52:48.624664,A1,"self.ur.move_joints(self.quantos_sequence.jointsapproach_wall, velocity=self.joint_velocity)"
2022-03-31 12:20:10.571162,ICE,"self.ur.move_joints(self.quantos_sequence.jointsapproach_wall, velocity=self.joint_velocity)"
2022-03-31 12:20:11.206774,ICE,self.ur.open_gripper(0)
2022-03-31 12:20:11.443625,ICE,"self.ur.move_joints(self.quantos_sequence.jointsturnup, velocity=self.joint_velocity)"
2022-03-31 12:20:13.412820,ICE,"self.ur.move_joints(self.quantos_sequence.jointsWaypoint_4, velocity=self.joint_velocity)"
2022-03-31 12:20:15.219764,ICE,"self.ur.move_joints(self.quantos_sequence.jointsWaypoint_5, velocity=self.joint_velocity)"
2022-03-31 12:20:18.031831,ICE,"self.ur.move_joints(self.quantos_sequence.jointsWaypoint_6, velocity=self.joint_velocity)"
2022-03-31 12:20:20.943206,ICE,"self.ur.move_joints(self.quantos_sequence.jointsswing, velocity=self.joint_velocity)"
2022-03-31 12:20:22.552352,ICE,"self.ur.move_joints(self.quantos_sequence.jointsWaypoint_3, velocity=self.joint_velocity)"
2022-03-31 12:20:23.755410,ICE,"self.ur.move_joints(self.quantos_sequence.jointsquaninsert_apr, velocity=self.joint_velocity)"
2022-03-31 12:20:25.762530,ICE,"self.ur.move_to_location(self.quantos_sequence.locationsquan_engage, velocity=self.linear_velocity)"
2022-03-31 12:20:26.565039,ICE,"self.ur.open_gripper(0.5,velocity=0)"
2022-03-31 12:20:26.798895,ICE,"self.ur.move_to_location(self.quantos_sequence.locationsquan_engage+Location(z=4), velocity=20)"
2022-03-31 12:20:27.771433,ICE,"self.ur.move_joints(self.quantos_sequence.jointsquaninsert_apr, velocity=10)"
2022-03-31 12:20:28.680278,ICE,"self.ur.move_joints(self.quantos_sequence.jointsWaypoint_9, velocity=self.joint_velocity)"
2022-03-31 12:20:30.185353,ICE,"self.ur.move_joints(self.quantos_sequence.jointsWaypoint_3, velocity=self.joint_velocity)"
2022-03-31 12:20:31.488579,ICE,"self.ur.move_joints(self.quantos_sequence.jointsswing, velocity=self.joint_velocity)"
2022-03-31 12:20:32.696841,ICE,"self.ur.move_joints(self.quantos_sequence.jointsWaypoint_6, velocity=self.joint_velocity)"
2022-03-31 12:20:34.302812,ICE,"self.ur.move_joints(self.quantos_sequence.jointsWaypoint_5, velocity=self.joint_velocity)"
2022-03-31 12:20:37.207368,ICE,"self.ur.move_joints(self.quantos_sequence.jointsWaypoint_4, velocity=self.joint_velocity)"
2022-03-31 12:20:40.030020,ICE,"self.ur.move_joints(self.quantos_sequence.jointsturnup, velocity=self.joint_velocity)"
2022-03-31 12:20:41.829914,ICE,"self.ur.move_joints(self.quantos_sequence.jointsapproach_wall, velocity=self.joint_velocity)"
2022-03-31 12:20:43.836326,A1,"self.ur.move_to_location(self.wall_grid.locations[wall_index] + self.wall_approach_far_offset, velocity=self.linear_velocity)"
2022-03-31 12:20:46.152116,A1,"self.ur.move_to_location(self.wall_grid.locations[wall_index] + self.wall_approach_close_offset,velocity=self.linear_velocity)"
2022-03-31 12:20:47.665738,A1,"self.ur.move_to_location(self.wall_grid.locations[wall_index] + Location(z=4),velocity=self.linear_velocity)"
2022-03-31 12:20:48.669197,A1,"self.ur.move_to_location(self.wall_grid.locations[wall_index],velocity=self.linear_velocity)"
2022-03-31 12:20:49.365775,A1,self.ur.open_gripper(0)
2022-03-31 12:20:49.827064,A1,"self.ur.move_to_location(self.wall_grid.locations[wall_index] + Location(z=4),velocity=self.linear_velocity)"
2022-03-31 12:20:50.477665,A1,"self.ur.move_to_location(self.wall_grid.locations[wall_index] + self.wall_approach_close_offset,velocity=self.linear_velocity)"
2022-03-31 12:20:51.479398,A1,"self.ur.move_to_location(self.wall_grid.locations[wall_index] + self.wall_approach_far_offset,velocity=self.linear_velocity)"
2022-03-31 12:20:52.993040,A3,self.ur.move_to_location(self.wall_grid.locations[wall_index] + self.wall_approach_far_offset)
2022-03-31 12:20:54.589474,A3,self.ur.move_to_location(self.wall_grid.locations[wall_index] + self.wall_approach_close_offset)
2022-03-31 12:20:55.594365,A3,"self.ur.move_to_location(self.wall_grid.locations[wall_index] + Location(z=4), velocity=self.linear_velocity)"
2022-03-31 12:20:56.598744,A3,"self.ur.move_to_location(self.wall_grid.locations[wall_index], velocity=self.linear_velocity)"
2022-03-31 12:20:57.296315,A3,self.ur.open_gripper(0.5)
2022-03-31 12:20:57.750763,A3,"self.ur.move_to_location(self.wall_grid.locations[wall_index] + Location(z=4), velocity=self.linear_velocity)"
2022-03-31 12:20:58.405355,A3,"self.ur.move_to_location(self.wall_grid.locations[wall_index] + self.wall_approach_close_offset, velocity=20, acceleration=100)"
2022-03-31 12:20:59.917595,A3,"self.ur.move_to_location(self.wall_grid.locations[wall_index] + self.wall_approach_far_offset, velocity=self.linear_velocity)"
2022-03-31 12:21:02.019052,A1,"self.ur.move_joints(self.quantos_sequence.jointsapproach_wall, velocity=self.joint_velocity)"
2022-03-31 12:21:03.726351,A1,"self.ur.move_joints(self.quantos_sequence.jointsturnup, velocity=self.joint_velocity)"
2022-03-31 12:21:05.732714,A1,"        self.ur.move_joints(self.quantos_sequence.jointsWaypoint_4, velocity=self.joint_velocity)"
2022-03-31 12:21:07.543268,A1,"        self.ur.move_joints(self.quantos_sequence.jointsWaypoint_5, velocity=self.joint_velocity)"
2022-03-31 12:21:10.356726,A1,"        self.ur.move_joints(self.quantos_sequence.jointsWaypoint_6, velocity=self.joint_velocity)"
2022-03-31 12:21:13.276234,A1,"        self.ur.move_joints(self.quantos_sequence.jointsswing, velocity=self.joint_velocity)"
2022-03-31 12:21:14.885836,A1,"        self.ur.move_joints(self.quantos_sequence.jointsWaypoint_3, velocity=self.joint_velocity)"
2022-03-31 12:21:16.095557,A1,"        self.ur.move_joints(self.quantos_sequence.jointsquaninsert_apr, velocity=20)"
2022-03-31 12:21:20.300860,A1,"        self.ur.move_joints(self.quantos_sequence.jointsquaninsert_sh, velocity=20)"
2022-03-31 12:21:21.415176,A1,"self.ur.move_to_location(self.quantos_sequence.locationsquan_engage, velocity=20)"
2022-03-31 12:21:26.022546,A1,self.ur.open_gripper(0)
2022-03-31 12:21:26.468271,A1,"self.ur.move_joints(self.quantos_sequence.jointsquaninsert_sh, velocity=self.joint_velocity)"
2022-03-31 12:21:27.040918,A1,"self.ur.move_joints(self.quantos_sequence.jointsquaninsert_apr, velocity=self.joint_velocity)   "
2022-03-31 12:21:27.846967,A1,"self.ur.move_joints(self.quantos_sequence.jointsWaypoint_9, velocity=self.joint_velocity)"
2022-03-31 12:21:29.351594,A1,"self.ur.move_joints(self.quantos_sequence.jointsWaypoint_3, velocity=self.joint_velocity)"
2022-03-31 12:21:30.651243,A1,"self.ur.move_joints(self.quantos_sequence.jointsswing, velocity=self.joint_velocity)"
2022-03-31 12:21:31.856140,A1,"self.ur.move_joints(self.quantos_sequence.jointsWaypoint_6, velocity=self.joint_velocity)"
2022-03-31 12:21:33.462154,A1,"        self.ur.move_joints(self.quantos_sequence.jointsWaypoint_5, velocity=self.joint_velocity)"
2022-03-31 12:21:36.389105,A1,"self.ur.move_joints(self.quantos_sequence.jointsWaypoint_4, velocity=self.joint_velocity)"
2022-03-31 12:21:39.191627,A1,"self.ur.move_joints(self.quantos_sequence.jointsturnup, velocity=self.joint_velocity)"
2022-03-31 12:21:41.000188,A1,"self.ur.move_joints(self.quantos_sequence.jointsapproach_wall, velocity=self.joint_velocity)"
2022-03-31 12:24:32.171792,GENTISIC,"self.ur.move_joints(self.quantos_sequence.jointsapproach_wall, velocity=self.joint_velocity)"
2022-03-31 12:24:32.390659,GENTISIC,self.ur.open_gripper(0)
2022-03-31 12:24:32.638508,GENTISIC,"self.ur.move_joints(self.quantos_sequence.jointsturnup, velocity=self.joint_velocity)"
2022-03-31 12:24:34.618341,GENTISIC,"self.ur.move_joints(self.quantos_sequence.jointsWaypoint_4, velocity=self.joint_velocity)"
2022-03-31 12:24:36.414872,GENTISIC,"self.ur.move_joints(self.quantos_sequence.jointsWaypoint_5, velocity=self.joint_velocity)"
2022-03-31 12:24:39.236888,GENTISIC,"self.ur.move_joints(self.quantos_sequence.jointsWaypoint_6, velocity=self.joint_velocity)"
2022-03-31 12:24:42.138973,GENTISIC,"self.ur.move_joints(self.quantos_sequence.jointsswing, velocity=self.joint_velocity)"
2022-03-31 12:24:43.768218,GENTISIC,"self.ur.move_joints(self.quantos_sequence.jointsWaypoint_3, velocity=self.joint_velocity)"
2022-03-31 12:24:44.966057,GENTISIC,"self.ur.move_joints(self.quantos_sequence.jointsquaninsert_apr, velocity=self.joint_velocity)"
2022-03-31 12:24:46.968853,GENTISIC,"self.ur.move_to_location(self.quantos_sequence.locationsquan_engage, velocity=self.linear_velocity)"
2022-03-31 12:24:47.773982,GENTISIC,"self.ur.open_gripper(0.5,velocity=0)"
2022-03-31 12:24:48.256690,GENTISIC,"self.ur.move_to_location(self.quantos_sequence.locationsquan_engage+Location(z=4), velocity=20)"
2022-03-31 12:24:49.271342,GENTISIC,"self.ur.move_joints(self.quantos_sequence.jointsquaninsert_apr, velocity=10)"
2022-03-31 12:24:50.075847,GENTISIC,"self.ur.move_joints(self.quantos_sequence.jointsWaypoint_9, velocity=self.joint_velocity)"
2022-03-31 12:24:51.586500,GENTISIC,"self.ur.move_joints(self.quantos_sequence.jointsWaypoint_3, velocity=self.joint_velocity)"
2022-03-31 12:24:52.903387,GENTISIC,"self.ur.move_joints(self.quantos_sequence.jointsswing, velocity=self.joint_velocity)"
2022-03-31 12:24:54.097634,GENTISIC,"self.ur.move_joints(self.quantos_sequence.jointsWaypoint_6, velocity=self.joint_velocity)"
2022-03-31 12:24:55.715655,GENTISIC,"self.ur.move_joints(self.quantos_sequence.jointsWaypoint_5, velocity=self.joint_velocity)"
2022-03-31 12:24:58.624578,GENTISIC,"self.ur.move_joints(self.quantos_sequence.jointsWaypoint_4, velocity=self.joint_velocity)"
2022-03-31 12:25:01.443726,GENTISIC,"self.ur.move_joints(self.quantos_sequence.jointsturnup, velocity=self.joint_velocity)"
2022-03-31 12:25:03.241171,GENTISIC,"self.ur.move_joints(self.quantos_sequence.jointsapproach_wall, velocity=self.joint_velocity)"
2022-03-31 12:25:05.261478,A3,"self.ur.move_to_location(self.wall_grid.locations[wall_index] + self.wall_approach_far_offset, velocity=self.linear_velocity)"
2022-03-31 12:25:08.072739,A3,"self.ur.move_to_location(self.wall_grid.locations[wall_index] + self.wall_approach_close_offset,velocity=self.linear_velocity)"
2022-03-31 12:25:09.571349,A3,"self.ur.move_to_location(self.wall_grid.locations[wall_index] + Location(z=4),velocity=self.linear_velocity)"
2022-03-31 12:25:10.574051,A3,"self.ur.move_to_location(self.wall_grid.locations[wall_index],velocity=self.linear_velocity)"
2022-03-31 12:25:11.285290,A3,self.ur.open_gripper(0)
2022-03-31 12:25:11.750006,A3,"self.ur.move_to_location(self.wall_grid.locations[wall_index] + Location(z=4),velocity=self.linear_velocity)"
2022-03-31 12:25:12.490549,A3,"self.ur.move_to_location(self.wall_grid.locations[wall_index] + self.wall_approach_close_offset,velocity=self.linear_velocity)"
2022-03-31 12:25:13.503363,A3,"self.ur.move_to_location(self.wall_grid.locations[wall_index] + self.wall_approach_far_offset,velocity=self.linear_velocity)"
2022-03-31 12:25:15.024112,A3,self.ur.move_to_location(self.wall_grid.locations[wall_index] + self.wall_approach_far_offset)
2022-03-31 12:25:15.203996,A3,self.ur.move_to_location(self.wall_grid.locations[wall_index] + self.wall_approach_close_offset)
2022-03-31 12:25:16.213661,A3,"self.ur.move_to_location(self.wall_grid.locations[wall_index] + Location(z=4), velocity=self.linear_velocity)"
2022-03-31 12:25:17.220633,A3,"self.ur.move_to_location(self.wall_grid.locations[wall_index], velocity=self.linear_velocity)"
2022-03-31 12:25:17.935189,A3,self.ur.open_gripper(0.5)
2022-03-31 12:25:18.415894,A3,"self.ur.move_to_location(self.wall_grid.locations[wall_index] + Location(z=4), velocity=self.linear_velocity)"
2022-03-31 12:25:19.140448,A3,"self.ur.move_to_location(self.wall_grid.locations[wall_index] + self.wall_approach_close_offset, velocity=20, acceleration=100)"
2022-03-31 12:25:20.653908,A3,"self.ur.move_to_location(self.wall_grid.locations[wall_index] + self.wall_approach_far_offset, velocity=self.linear_velocity)"
2022-03-31 12:25:22.766896,A3,"self.ur.move_joints(self.quantos_sequence.jointsapproach_wall, velocity=self.joint_velocity)"
