vial_index,capped,stirbar,used
A1,True,True,False
B1,True,True,False
C1,True,True,False
D1,True,True,False
A2,True,True,False
B2,True,True,False
C2,True,True,False
D2,True,True,False
A3,True,True,False
B3,True,True,False
C3,True,True,False
D3,True,True,False
A4,True,True,False
B4,True,True,False
C4,True,True,False
D4,True,True,False
A5,True,True,False
B5,True,True,False
C5,True,True,False
D5,True,True,False
A6,True,True,False
B6,True,True,False
C6,True,True,False
D6,True,True,False
