2021-10-13 17:06:07.051465,2lbs,ur.open_gripper(0)
2021-10-13 17:06:07.277324,2lbs,"    ur.move_joints(quantos_sequence.jointsWaypoint_1, velocity=30)"
2021-10-13 17:06:07.442223,2lbs,"    ur.move_to_location(quantos_sequenceWaypoint_2, velocity=80)"
2021-10-13 17:06:11.865509,2lbs,ur.open_gripper(0.30)
2021-10-13 17:06:12.304239,2lbs,"    ur.move_to_location(quantos_sequenceWaypoint_1, velocity=80)"
2021-10-13 17:06:16.698541,2lbs,"    ur.move_joints(quantos_sequence.jointsWaypoint_5, velocity=30)"
2021-10-13 17:06:19.904572,2lbs,"    ur.move_joints(quantos_sequence.jointsWaypoint_6, velocity=30)"
2021-10-13 17:06:23.117600,2lbs,"    ur.move_joints(quantos_sequence.jointsWaypoint_1, velocity=30)"
2021-10-13 17:06:27.134133,2lbs,"    ur.move_to_location(quantos_sequenceWaypoint_2, velocity=100)"
2021-10-13 17:06:30.947347,2lbs,ur.open_gripper(0)
2021-10-13 17:06:31.274147,2lbs,"    ur.move_to_location(quantos_sequenceWaypoint_1, velocity=80)"
2021-10-13 17:06:37.683212,2lbs,ur.open_gripper(0)
2021-10-13 17:06:37.899079,2lbs,"    ur.move_joints(quantos_sequence.jointsWaypoint_1, velocity=30)"
2021-10-13 17:06:38.075973,2lbs,"    ur.move_to_location(quantos_sequenceWaypoint_2, velocity=80)"
2021-10-13 17:06:42.502252,2lbs,ur.open_gripper(0.30)
2021-10-13 17:06:42.835047,2lbs,"    ur.move_to_location(quantos_sequenceWaypoint_1, velocity=80)"
2021-10-13 17:06:47.231349,2lbs,"    ur.move_joints(quantos_sequence.jointsWaypoint_5, velocity=30)"
2021-10-13 17:06:50.442377,2lbs,"    ur.move_joints(quantos_sequence.jointsWaypoint_6, velocity=30)"
2021-10-13 17:06:53.652405,2lbs,"    ur.move_joints(quantos_sequence.jointsWaypoint_1, velocity=30)"
2021-10-13 17:06:57.682931,2lbs,"    ur.move_to_location(quantos_sequenceWaypoint_2, velocity=100)"
2021-10-13 17:07:01.390655,2lbs,ur.open_gripper(0)
2021-10-13 17:07:01.723450,2lbs,"    ur.move_to_location(quantos_sequenceWaypoint_1, velocity=80)"
2021-10-13 17:07:06.319630,2lbs,ur.open_gripper(0)
2021-10-13 17:07:06.541490,2lbs,"    ur.move_joints(quantos_sequence.jointsWaypoint_1, velocity=30)"
2021-10-13 17:07:06.713385,2lbs,"    ur.move_to_location(quantos_sequenceWaypoint_2, velocity=80)"
2021-10-13 17:07:11.146665,2lbs,ur.open_gripper(0.30)
2021-10-13 17:07:11.477465,2lbs,"    ur.move_to_location(quantos_sequenceWaypoint_1, velocity=80)"
2021-10-13 17:07:15.865767,2lbs,"    ur.move_joints(quantos_sequence.jointsWaypoint_5, velocity=30)"
2021-10-13 17:07:19.083791,2lbs,"    ur.move_joints(quantos_sequence.jointsWaypoint_6, velocity=30)"
2021-10-13 17:07:22.297817,2lbs,"    ur.move_joints(quantos_sequence.jointsWaypoint_1, velocity=30)"
2021-10-13 17:07:26.327344,2lbs,"    ur.move_to_location(quantos_sequenceWaypoint_2, velocity=100)"
2021-10-13 17:07:30.134006,2lbs,ur.open_gripper(0)
2021-10-13 17:07:30.459806,2lbs,"    ur.move_to_location(quantos_sequenceWaypoint_1, velocity=80)"
2021-10-13 17:07:36.877869,2lbs,ur.open_gripper(0)
2021-10-13 17:07:37.089735,2lbs,"    ur.move_joints(quantos_sequence.jointsWaypoint_1, velocity=30)"
2021-10-13 17:07:37.271622,2lbs,"    ur.move_to_location(quantos_sequenceWaypoint_2, velocity=80)"
2021-10-13 17:07:41.706901,2lbs,ur.open_gripper(0.30)
2021-10-13 17:07:42.037699,2lbs,"    ur.move_to_location(quantos_sequenceWaypoint_1, velocity=80)"
2021-10-13 17:07:46.431997,2lbs,"    ur.move_joints(quantos_sequence.jointsWaypoint_5, velocity=30)"
2021-10-13 17:07:49.649023,2lbs,"    ur.move_joints(quantos_sequence.jointsWaypoint_6, velocity=30)"
2021-10-13 17:07:52.858052,2lbs,"    ur.move_joints(quantos_sequence.jointsWaypoint_1, velocity=30)"
2021-10-13 17:07:56.885580,2lbs,"    ur.move_to_location(quantos_sequenceWaypoint_2, velocity=100)"
2021-10-13 17:08:00.709233,2lbs,ur.open_gripper(0)
2021-10-13 17:08:01.038031,2lbs,"    ur.move_to_location(quantos_sequenceWaypoint_1, velocity=80)"
2021-10-13 17:08:05.635207,2lbs,ur.open_gripper(0)
2021-10-13 17:08:05.850076,2lbs,"    ur.move_joints(quantos_sequence.jointsWaypoint_1, velocity=30)"
2021-10-13 17:08:06.024968,2lbs,"    ur.move_to_location(quantos_sequenceWaypoint_2, velocity=80)"
2021-10-13 17:08:10.451250,2lbs,ur.open_gripper(0.30)
2021-10-13 17:08:10.781048,2lbs,"    ur.move_to_location(quantos_sequenceWaypoint_1, velocity=80)"
2021-10-13 17:08:15.185344,2lbs,"    ur.move_joints(quantos_sequence.jointsWaypoint_5, velocity=30)"
2021-10-13 17:08:18.402370,2lbs,"    ur.move_joints(quantos_sequence.jointsWaypoint_6, velocity=30)"
2021-10-13 17:08:21.613396,2lbs,"    ur.move_joints(quantos_sequence.jointsWaypoint_1, velocity=30)"
2021-10-13 17:08:25.646920,2lbs,"    ur.move_to_location(quantos_sequenceWaypoint_2, velocity=100)"
2021-10-13 17:08:29.468575,2lbs,ur.open_gripper(0)
2021-10-13 17:08:29.797372,2lbs,"    ur.move_to_location(quantos_sequenceWaypoint_1, velocity=80)"
2021-10-13 17:08:36.198440,2lbs,ur.open_gripper(0)
2021-10-13 17:08:36.432296,2lbs,"    ur.move_joints(quantos_sequence.jointsWaypoint_1, velocity=30)"
2021-10-13 17:08:36.595197,2lbs,"    ur.move_to_location(quantos_sequenceWaypoint_2, velocity=80)"
2021-10-13 17:08:41.027476,2lbs,ur.open_gripper(0.30)
2021-10-13 17:08:41.357275,2lbs,"    ur.move_to_location(quantos_sequenceWaypoint_1, velocity=80)"
2021-10-13 17:08:45.751575,2lbs,"    ur.move_joints(quantos_sequence.jointsWaypoint_5, velocity=30)"
2021-10-13 17:08:48.872660,2lbs,"    ur.move_joints(quantos_sequence.jointsWaypoint_6, velocity=30)"
2021-10-13 17:08:51.996743,2lbs,"    ur.move_joints(quantos_sequence.jointsWaypoint_1, velocity=30)"
2021-10-13 17:08:56.009276,2lbs,"    ur.move_to_location(quantos_sequenceWaypoint_2, velocity=100)"
2021-10-13 17:08:59.731992,2lbs,ur.open_gripper(0)
2021-10-13 17:09:00.060790,2lbs,"    ur.move_to_location(quantos_sequenceWaypoint_1, velocity=80)"
2021-10-13 17:09:04.867845,2lbs,ur.open_gripper(0)
2021-10-13 17:09:05.089701,2lbs,"    ur.move_joints(quantos_sequence.jointsWaypoint_1, velocity=30)"
2021-10-13 17:09:05.260596,2lbs,"    ur.move_to_location(quantos_sequenceWaypoint_2, velocity=80)"
2021-10-13 17:09:09.690876,2lbs,ur.open_gripper(0.30)
2021-10-13 17:09:10.019675,2lbs,"    ur.move_to_location(quantos_sequenceWaypoint_1, velocity=80)"
2021-10-13 17:09:14.417974,2lbs,"    ur.move_joints(quantos_sequence.jointsWaypoint_5, velocity=30)"
2021-10-13 17:09:17.642994,2lbs,"    ur.move_joints(quantos_sequence.jointsWaypoint_6, velocity=30)"
2021-10-13 17:09:20.864015,2lbs,"    ur.move_joints(quantos_sequence.jointsWaypoint_1, velocity=30)"
2021-10-13 17:09:24.877554,2lbs,"    ur.move_to_location(quantos_sequenceWaypoint_2, velocity=100)"
2021-10-13 17:09:28.606262,2lbs,ur.open_gripper(0)
2021-10-13 17:09:28.930062,2lbs,"    ur.move_to_location(quantos_sequenceWaypoint_1, velocity=80)"
2021-10-13 17:09:33.539232,2lbs,ur.open_gripper(0)
2021-10-13 17:09:33.760098,2lbs,"    ur.move_joints(quantos_sequence.jointsWaypoint_1, velocity=30)"
2021-10-13 17:09:33.930992,2lbs,"    ur.move_to_location(quantos_sequenceWaypoint_2, velocity=80)"
2021-10-13 17:09:38.366270,2lbs,ur.open_gripper(0.30)
2021-10-13 17:09:38.695067,2lbs,"    ur.move_to_location(quantos_sequenceWaypoint_1, velocity=80)"
2021-10-13 17:09:43.094365,2lbs,"    ur.move_joints(quantos_sequence.jointsWaypoint_5, velocity=30)"
2021-10-13 17:09:46.210452,2lbs,"    ur.move_joints(quantos_sequence.jointsWaypoint_6, velocity=30)"
2021-10-13 17:09:49.325542,2lbs,"    ur.move_joints(quantos_sequence.jointsWaypoint_1, velocity=30)"
2021-10-13 17:09:53.359064,2lbs,"    ur.move_to_location(quantos_sequenceWaypoint_2, velocity=100)"
2021-10-13 17:09:57.172723,2lbs,ur.open_gripper(0)
2021-10-13 17:09:57.502518,2lbs,"    ur.move_to_location(quantos_sequenceWaypoint_1, velocity=80)"
2021-10-13 17:10:02.113688,2lbs,ur.open_gripper(0)
2021-10-13 17:10:02.335551,2lbs,"    ur.move_joints(quantos_sequence.jointsWaypoint_1, velocity=30)"
2021-10-13 17:10:02.503449,2lbs,"    ur.move_to_location(quantos_sequenceWaypoint_2, velocity=80)"
2021-10-13 17:10:06.930729,2lbs,ur.open_gripper(0.30)
2021-10-13 17:10:07.258529,2lbs,"    ur.move_to_location(quantos_sequenceWaypoint_1, velocity=80)"
2021-10-13 17:10:11.673817,2lbs,"    ur.move_joints(quantos_sequence.jointsWaypoint_5, velocity=30)"
2021-10-13 17:10:14.782910,2lbs,"    ur.move_joints(quantos_sequence.jointsWaypoint_6, velocity=30)"
2021-10-13 17:10:17.910988,2lbs,"    ur.move_joints(quantos_sequence.jointsWaypoint_1, velocity=30)"
2021-10-13 17:10:21.934518,2lbs,"    ur.move_to_location(quantos_sequenceWaypoint_2, velocity=100)"
2021-10-13 17:10:25.653235,2lbs,ur.open_gripper(0)
2021-10-13 17:10:25.983032,2lbs,"    ur.move_to_location(quantos_sequenceWaypoint_1, velocity=80)"
2021-10-13 17:10:30.789080,2lbs,ur.open_gripper(0)
2021-10-13 17:10:30.999950,2lbs,"    ur.move_joints(quantos_sequence.jointsWaypoint_1, velocity=30)"
2021-10-13 17:10:31.184838,2lbs,"    ur.move_to_location(quantos_sequenceWaypoint_2, velocity=80)"
2021-10-13 17:10:35.615117,2lbs,ur.open_gripper(0.30)
2021-10-13 17:10:35.938918,2lbs,"    ur.move_to_location(quantos_sequenceWaypoint_1, velocity=80)"
2021-10-13 17:10:40.352210,2lbs,"    ur.move_joints(quantos_sequence.jointsWaypoint_5, velocity=30)"
2021-10-13 17:10:43.570232,2lbs,"    ur.move_joints(quantos_sequence.jointsWaypoint_6, velocity=30)"
2021-10-13 17:10:46.693315,2lbs,"    ur.move_joints(quantos_sequence.jointsWaypoint_1, velocity=30)"
2021-10-13 17:10:50.721847,2lbs,"    ur.move_to_location(quantos_sequenceWaypoint_2, velocity=100)"
2021-10-13 17:10:54.451557,2lbs,ur.open_gripper(0)
2021-10-13 17:10:54.784351,2lbs,"    ur.move_to_location(quantos_sequenceWaypoint_1, velocity=80)"
